hodný,p,1
šikovný,p,1
krásný,p,1
laskavý,p,1
pozitivní,p,1
líbit,p,1
rád,p,1
slušný,p,1
lepší,p,1
milovat,p,1
ohleduplný,p,1
pozorný,p,1
pracovitý,p,1
pilný,p,1
pomoci,p,1
souhlasit,p,1
prospěšný,p,1
prozřít,p,1
přát,p,1
korektní,p,1
vysvětlit,p,1
profesionální,p,1
zveřejňovat,p,1
nahoru,p,1
dobrý,p,1
uctivý,p,1
logický,p,1
úsměv,p,1
srdíčko,p,1
možný,p,1
pochopit,p,1
akceptovat,p,1
pravý,p,1
plnohodnotný,p,1
úroveň,p,1
hrdost,p,1
čest,p,1
děkovat,p,1
vrátit,p,1
čistý,p,1
souhlas,p,1
pořádek,p,1
charita,p,1
obnova,p,1
rozvoj,p,1
investice,p,1
získat,p,1
spravedlivý,p,1
milý,p,1
chytrý,p,1
nádherný,p,1
hezký,p,1
pěkný,p,1
úžasný,p,1
zajímavý,p,1
negativní,p,1
solidní,p,1
vysvětlovat,p,1
sdělit,p,1
dolů,p,1
vzhůru,p,1
zpět,p,1
dozadu,p,1
doleva,p,1
vlevo,p,1
zpátky,p,1
dovnitř,p,1
nahoře,p,1
vysoko,p,1
vpravo,p,1
vedle,p,1
vpřed,p,1
dole,p,1
dohromady,p,1
kupředu,p,1
domů,p,1
ven,p,1
podobně,p,1
jinde,p,1
venku,p,1
jinam,p,1
dopředu,p,1
důležitý,p,1
skvělý,p,1
výborný,p,1
jednoduchý,p,1
kvalitní,p,1
chápat,p,1
Pravý,p,1
Děkovat,p,1
vracet,p,1
vývoj,p,1
inteligentní,p,1
překrásný,p,1
Krásný,p,1
originální,p,1
nový,p,1
atraktivní,p,1
jedinečný,p,1
Zajímavý,p,1
vzadu,p,1
pěšky,p,1
stranou,p,1
podruhé,p,1
uprostřed,p,1
napravo,p,1
pohromadě,p,1
dodnes,p,1
vstříc,p,1
zadarmo,p,1
všude,p,1
předem,p,1
ideální,p,1
potřebný,p,1
vynikající,p,1
perfektní,p,1
podobný,p,1
správný,p,1
snadný,p,1
Kvalitní,p,1
vnímat,p,1
Nádherný,p,1
Pěkný,p,1
unikátní,p,1
tradiční,p,1
původní,p,1
zmíněný,p,1
vlastní,p,1
jednotlivý,p,1
samotný,p,1
starý,p,1
moderní,p,1
stávající,p,1
výjimečný,p,1
pozoruhodný,p,1
Podobný,p,1
Další,p,1
nalevo,p,1
vzad,p,1
jindy,p,1
loni,p,1
pozadu,p,1
zdarma,p,1
dříve,p,1
odpovídající,p,1
výtečný,p,1
dokonalý,p,1
jediný,p,1
konkrétní,p,1
mnohý,p,1
uvedený,p,1
Ostatní,p,1
vybraný,p,1
daný,p,1
stejný,p,1
určitý,p,1
příslušný,p,1
zmiňovaný,p,1
obvyklý,p,1
zvláštní,p,1
odlišný,p,1
obdobný,p,1
rozličný,p,1
následující,p,1
běžný,p,1
