velmi,+,1
opravdu,+,1
hodně,+,1
velice,+,1
hlavně,+,1
přitom,+,1
navíc,+,1
dost,+,1
zároveň,+,1
rozhodně,+,1
skutečně,+,1
taky,+,1
také,+,1
ještě,+,1
mnoho,+,1
prostě,+,1
dobře,+,1
už,+,1
vždy,+,1
určitě,+,1
třeba,+,1
jen,+,1
teď,+,1
někdy,+,1
dnes,+,1
samozřejmě,+,1
ale,+,1
nikdy,+,1
znovu,+,1
jak,+,1
pak,+,1
lze,+,1
ten,+,1
konečně,+,1
dříve,+,1
a,+,1
nyní,+,1
,,+,1
on,+,1
nejen,+,1
se,+,1
tedy,+,1
především,+,1
pouze,+,1
jednou,+,1
i,+,1
tam,+,1
hned,+,1
pořádně,+,1
daleko,+,1
ani,+,1
již,+,1
že,+,1
rychle,+,1
my,+,1
naopak,+,1
já,+,1
klidně,+,1
snadno,+,1
totiž,+,1
stejně,+,1
stále,+,1
dlouho,+,1
nějak,+,1
jenom,+,1
často,+,1
zatím,+,1
by,+,1
něco,+,1
nebo,+,1
vy,+,1
vůbec,+,1
takhle,+,1
nakonec,+,1
zde,+,1
asi,+,1
okamžitě,+,1
než,+,1
však,+,1
),+,1
-,+,1
jinak,+,1
občas,+,1
potom,+,1
nejvíce,+,1
pořád,+,1
příliš,+,1
tolik,+,1
trochu,+,1
pěkně,+,1
neustále,+,1
nejvíc,+,1
výrazně,+,1
správně,+,1
přesně,+,1
jednoduše,+,1
tak,+,1
současně,+,1
přímo,+,1
pozdě,+,1
docela,+,1
efektivně,+,1
jistě,+,1
doma,+,1
tady,+,1
",+,1
kde,+,1
proč,+,1
vždycky,+,1
zase,+,1
případně,+,1
A,+,1
někdo,+,1
možno,+,1
například,+,1
či,+,1
rovněž,+,1
dokonce,+,1
nutno,+,1
sám,+,1
proto,+,1
–,+,1
“,+,1
všechen,+,1
#num#,+,1
(,+,1
následně,+,1
-li,+,1
můžou,+,1
takto,+,1
můžu,+,1
.,+,1
společně,+,1
Jak,+,1
zapotřebí,+,1
tento,+,1
Vy,+,1
postupně,+,1
ihned,+,1
alespoň,+,1
„,+,1
ovšem,+,1
:,+,1
nadále,+,1
spíše,+,1
ne,+,1
rovnou,+,1
Ale,+,1
úplně,+,1
skvěle,+,1
krásně,+,1
úspěšně,+,1
dokonale,+,1
kvalitně,+,1
bezpečně,+,1
hezky,+,1
plně,+,1
dostatečně,+,1
pečlivě,+,1
lehko,+,1
slušně,+,1
včas,+,1
pohodlně,+,1
brzy,+,1
nejprve,+,1
poté,+,1
Lze,+,1
ty,+,1
jako,+,1
co,+,1
sice,+,1
aspoň,+,1
najednou,+,1
poprvé,+,1
letos,+,1
zítra,+,1
těžko,+,1
spolu,+,1
nikdo,+,1
smět,+,1
nic,+,1
snad,+,1
přece,+,1
protože,+,1
nemůžu,+,1
každý,+,1
kdo,+,1
vlastně,+,1
takže,+,1
Musit,+,1
znova,+,1
tenhle,+,1
všecek,+,1
předem,+,1
hodlat,+,1
schopen,+,1
buď,+,1
několikrát,+,1
dvakrát,+,1
sem,+,1
někde,+,1
někam,+,1
řádně,+,1
pravidelně,+,1
zda,+,1
pomalu,+,1
zcela,+,1
Ty,+,1
spolehlivě,+,1
denně,+,1
nijak,+,1
opakovaně,+,1
Muset,+,1
Moct,+,1
cokoliv,+,1
/,+,1
možná,+,1
maximálně,+,1
zbytečně,+,1
trošku,+,1
významně,+,1
jasně,+,1
jednoznačně,+,1
účinně,+,1
aktivně,+,1
dlouhodobě,+,1
tu,+,1
kdy,+,1
Proč,+,1
druhý,+,1
též,+,1
nemůžou,+,1
takový,+,1
spíš,+,1
naprosto,+,1
výborně,+,1
perfektně,+,1
příjemně,+,1
profesionálně,+,1
naplno,+,1
důkladně,+,1
důsledně,+,1
podrobně,+,1
brzo,+,1
obtížně,+,1
cokoli,+,1
Takže,+,1
dopředu,+,1
schopný,+,1
třikrát,+,1
nikde,+,1
kam,+,1
nikam,+,1
jestli,+,1
